Writer,Nationality,Born,Died,Famous book
"",Ukrainian,1814,1861,Kobzar
Ernest Hemingway,"Amer""i""c,a
n",1899,1961,"The Old ,Man and the Sea"
Arthur Conan Doyle,Scottish,1859,1930,"Stories of Sherlock 
Holmes"
Heinrich Heine,German,1797,1856,"Book of ""Son""gs"
Dante Alighieri,Italian,1265,1321,The divine comedy